Databases In R Using Tidyverse
…
## Data analysis verbs

---
---

.right-column[

```r
(mtcars_tbl <- as_tibble(rownames_to_column(mtcars, var = "model")))
```

```
## # A tibble: 32 x 12
##    model   mpg   cyl  disp    hp  drat    wt  qsec    vs    am  gear  carb
##    <chr> <dbl> <dbl> <dbl> <dbl> <dbl> <dbl> <dbl> <dbl> <dbl> <dbl> <dbl>
##  1 Mazd…  21       6  160    110  3.9   2.62  16.5     0     1     4     4
##  2 Mazd…  21       6  160    110  3.9   2.88  17.0     0     1     4     4
##  3 Dats…  22.8     4  108     93  3.85  2.32  18.6     1     1     4     1
##  4 Horn…  21.4     6  258    110  3.08  3.22  19.4     1     0     3     1
##  5 Horn…  18.7     8  360    175  3.15  3.44  17.0     0     0     3     2
##  6 Vali…  18.1     6  225    105  2.76  3.46  20.2     1     0     3     1
##  7 Dust…  14.3     8  360    245  3.21  3.57  15.8     0     0     3     4
##  8 Merc…  24.4     4  147.    62  3.69  3.19  20       1     0     4     2
##  9 Merc…  22.8     4  141.    95  3.92  3.15  22.9     1     0     4     2
## 10 Merc…  19.2     6  168.   123  3.92  3.44  18.3     1     0     4     4
## # ... with 22 more rows
```
…
---

.left-column[
### select
]

.right-column[

```r
select(mtcars_tbl, model, mpg, cyl, wt:am)
```

```
## # A tibble: 32 x 7
##    model               mpg   cyl    wt  qsec    vs    am
##    <chr>             <dbl> <dbl> <dbl> <dbl> <dbl> <dbl>
##  1 Mazda RX4          21       6  2.62  16.5     0     1
##  2 Mazda RX4 Wag      21       6  2.88  17.0     0     1
##  3 Datsun 710         22.8     4  2.32  18.6     1     1
##  4 Hornet 4 Drive     21.4     6  3.22  19.4     1     0
##  5 Hornet Sportabout  18.7     8  3.44  17.0     0     0
##  6 Valiant            18.1     6  3.46  20.2     1     0
##  7 Duster 360         14.3     8  3.57  15.8     0     0
##  8 Merc 240D          24.4     4  3.19  20       1     0
##  9 Merc 230           22.8     4  3.15  22.9     1     0
## 10 Merc 280           19.2     6  3.44  18.3     1     0
## # ... with 22 more rows
```
…
.left-column[
### select
### filter
### mutate
]

.right-column[

```r
tmp <- select(mtcars_tbl, model, mpg, wt)
mutate(tmp, new_colum = mpg / wt)
```

```
## # A tibble: 32 x 4
##    model               mpg    wt new_colum
##    <chr>             <dbl> <dbl>     <dbl>
##  1 Mazda RX4          21    2.62      8.02
##  2 Mazda RX4 Wag      21    2.88      7.30
##  3 Datsun 710         22.8  2.32      9.83
##  4 Hornet 4 Drive     21.4  3.22      6.66
##  5 Hornet Sportabout  18.7  3.44      5.44
##  6 Valiant            18.1  3.46      5.23
##  7 Duster 360         14.3  3.57      4.01
##  8 Merc 240D          24.4  3.19      7.65
##  9 Merc 230           22.8  3.15      7.24
## 10 Merc 280           19.2  3.44      5.58
## # ... with 22 more rows
```
…
.left-column[
### select
### filter
### mutate
### arrange
]

.right-column[

```r
arrange(mtcars_tbl, desc(hp))
```

```
## # A tibble: 32 x 12
##    model   mpg   cyl  disp    hp  drat    wt  qsec    vs    am  gear  carb
##    <chr> <dbl> <dbl> <dbl> <dbl> <dbl> <dbl> <dbl> <dbl> <dbl> <dbl> <dbl>
##  1 Mase…  15       8  301    335  3.54  3.57  14.6     0     1     5     8
##  2 Ford…  15.8     8  351    264  4.22  3.17  14.5     0     1     5     4
##  3 Dust…  14.3     8  360    245  3.21  3.57  15.8     0     0     3     4
##  4 Cama…  13.3     8  350    245  3.73  3.84  15.4     0     0     3     4
##  5 Chry…  14.7     8  440    230  3.23  5.34  17.4     0     0     3     4
##  6 Linc…  10.4     8  460    215  3     5.42  17.8     0     0     3     4
##  7 Cadi…  10.4     8  472    205  2.93  5.25  18.0     0     0     3     4
##  8 Merc…  16.4     8  276.   180  3.07  4.07  17.4     0     0     3     3
##  9 Merc…  17.3     8  276.   180  3.07  3.73  17.6     0     0     3     3
## 10 Merc…  15.2     8  276.   180  3.07  3.78  18       0     0     3     3
## # ... with 22 more rows
```
…
